<?xml version="1.0" encoding="UTF-8" standalone="no"?>
<svg width="500px" height="258px" viewBox="0 0 500 258" version="1.1" xmlns="http://www.w3.org/2000/svg" xmlns:xlink="http://www.w3.org/1999/xlink">
    <!-- Generator: Sketch 41.2 (35397) - http://www.bohemiancoding.com/sketch -->
    <title>Artboard</title>
    <desc>Created with Sketch.</desc>
           <style type="text/css"><![CDATA[
            #china_path {
              stroke-dasharray: 1000;
              stroke-dashoffset: 1000;
              animation: dash 5s linear infinite;
            }
            @keyframes dash {
              0% {
                stroke-dashoffset: 1000;
              }
              10% {
                stroke-dashoffset: 820;
              }
              45% {
                stroke-dashoffset: 700;
              }
              50% {
                stroke-dashoffset: 450;
              }
              90% {
                stroke-dashoffset: 330;
              }
              100% {
                stroke-dashoffset: 0;

              }
            }
        ]]>
        </style>
    <defs>
        <linearGradient x1="50%" y1="0%" x2="50%" y2="100%" id="linearGradient-1">
            <stop stop-color="#8695EE" offset="0%"></stop>
            <stop stop-color="#6F7EE5" offset="46.5364583%"></stop>
            <stop stop-color="#EF6198" offset="52.797619%"></stop>
            <stop stop-color="#EF6198" offset="76.3231647%"></stop>
            <stop stop-color="#6170E0" offset="82.3883929%"></stop>
            <stop stop-color="#4E5CD8" offset="100%"></stop>
        </linearGradient>
        <ellipse id="path-2" cx="128" cy="37" rx="27" ry="27"></ellipse>
        <mask id="mask-3" maskContentUnits="userSpaceOnUse" maskUnits="objectBoundingBox" x="-5" y="-5" width="64" height="64">
            <rect x="96" y="5" width="64" height="64" fill="white"></rect>
            <use xlink:href="#path-2" fill="black"></use>
        </mask>
        <ellipse id="path-4" cx="240" cy="37" rx="27" ry="27"></ellipse>
        <mask id="mask-5" maskContentUnits="userSpaceOnUse" maskUnits="objectBoundingBox" x="-5" y="-5" width="64" height="64">
            <rect x="208" y="5" width="64" height="64" fill="white"></rect>
            <use xlink:href="#path-4" fill="black"></use>
        </mask>
        <ellipse id="path-6" cx="130" cy="217" rx="27" ry="27"></ellipse>
        <mask id="mask-7" maskContentUnits="userSpaceOnUse" maskUnits="objectBoundingBox" x="-5" y="-5" width="64" height="64">
            <rect x="98" y="185" width="64" height="64" fill="white"></rect>
            <use xlink:href="#path-6" fill="black"></use>
        </mask>
        <ellipse id="path-8" cx="241" cy="216" rx="27" ry="27"></ellipse>
        <mask id="mask-9" maskContentUnits="userSpaceOnUse" maskUnits="objectBoundingBox" x="-5" y="-5" width="64" height="64">
            <rect x="209" y="184" width="64" height="64" fill="white"></rect>
            <use xlink:href="#path-8" fill="black"></use>
        </mask>
        <rect id="path-10" x="0" y="0" width="20" height="35" rx="2.4"></rect>
        <mask id="mask-11" maskContentUnits="userSpaceOnUse" maskUnits="objectBoundingBox" x="0" y="0" width="20" height="35" fill="white">
            <use xlink:href="#path-10"></use>
        </mask>
        <rect id="path-12" x="0" y="0" width="29" height="24" rx="2.4"></rect>
        <mask id="mask-13" maskContentUnits="userSpaceOnUse" maskUnits="objectBoundingBox" x="0" y="0" width="29" height="24" fill="white">
            <use xlink:href="#path-12"></use>
        </mask>
        <rect id="path-14" x="0" y="0" width="29" height="24" rx="2.4"></rect>
        <mask id="mask-15" maskContentUnits="userSpaceOnUse" maskUnits="objectBoundingBox" x="0" y="0" width="29" height="24" fill="white">
            <use xlink:href="#path-14"></use>
        </mask>
        <ellipse id="path-16" cx="351" cy="120" rx="27" ry="27"></ellipse>
        <mask id="mask-17" maskContentUnits="userSpaceOnUse" maskUnits="objectBoundingBox" x="-5" y="-5" width="64" height="64">
            <rect x="319" y="88" width="64" height="64" fill="white"></rect>
            <use xlink:href="#path-16" fill="black"></use>
        </mask>
        <rect id="path-18" x="0" y="0" width="29" height="33" rx="3"></rect>
        <mask id="mask-19" maskContentUnits="userSpaceOnUse" maskUnits="objectBoundingBox" x="0" y="0" width="29" height="33" fill="white">
            <use xlink:href="#path-18"></use>
        </mask>
    </defs>
    <g id="Page-1" stroke="none" stroke-width="1" fill="none" fill-rule="evenodd">
        <g transform="translate(70, 23)">
            <text id="Mapbox国内节点位置" font-family="PingFangSC-Semibold, PingFang SC" font-size="14" font-weight="500" fill="#424850">
                <tspan x="321" y="93">Mapbox国内</tspan>
                <tspan x="321" y="113">节点位置</tspan>
            </text>
        </g>
        <g id="Group-3" transform="translate(107, 80)">
            <text id="基站" font-family="PingFangSC-Semibold, PingFang SC" font-size="14" font-weight="500" fill="#424850">
                <tspan x="7" y="43">基站</tspan>
            </text>
            <text id="在海外" font-family="PingFangSC-Regular, PingFang SC" font-size="14" font-weight="normal" fill="#93999F">
                <tspan x="0" y="65">在海外</tspan>
            </text>
            <path d="M22.5,25.5 L22.5,0.5" id="Line-2" stroke="#93999F" stroke-linecap="square" fill-rule="nonzero"></path>
            <path d="M21.25,95.5 L21.25,70.5" id="Line-2-Copy" stroke="#93999F" stroke-linecap="square" fill-rule="nonzero"></path>
        </g>
        <g id="Group-4" transform="translate(220, 80)">
            <text id="防火墙" font-family="PingFangSC-Semibold, PingFang SC" font-size="14" font-weight="500" fill="#424850">
                <tspan x="0" y="43">防火墙</tspan>
            </text>
            <text id="速度慢" font-family="PingFangSC-Regular, PingFang SC" font-size="14" font-weight="normal" fill="#93999F">
                <tspan x="0" y="65">速度慢</tspan>
            </text>
            <path d="M21.5,25.5 L21.5,0.5" id="Line-2-Copy-2" stroke="#93999F" stroke-linecap="square" fill-rule="nonzero"></path>
            <path d="M20.25,95.5 L20.25,70.5" id="Line-2-Copy-3" stroke="#93999F" stroke-linecap="square" fill-rule="nonzero"></path>
        </g>
        <g id="Artboard">
            <path d="M160.018176,-31.9818242 L136.976783,-31.9818242 C119.306455,-31.9818242 104.981824,-17.6542919 104.981824,0.0103729568 L104.981824,251.025979 C104.981824,268.694781 119.30506,283.018176 136.97333,283.018176 L185.487663,283.018176 L193.307976,283.018176 L252.021201,283.018176 C269.692642,283.018176 284.018176,268.684119 284.018176,251.014371 L284.018176,0.447102239 C284.018176,-17.2281112 269.695192,-31.6581247 252.022537,-31.783266 L223.981824,-31.9818242" id="china_path_base" stroke="#DCDCDC" stroke-width="3" transform="translate(194.500000, 125.518176) scale(-1, 1) rotate(90.000000) translate(-194.500000, -125.518176) "></path>
            <path d="M160.018176,-31.9818242 L136.976783,-31.9818242 C119.306455,-31.9818242 104.981824,-17.6542919 104.981824,0.0103729568 L104.981824,251.025979 C104.981824,268.694781 119.30506,283.018176 136.97333,283.018176 L185.487663,283.018176 L193.307976,283.018176 L252.021201,283.018176 C269.692642,283.018176 284.018176,268.684119 284.018176,251.014371 L284.018176,0.447102239 C284.018176,-17.2281112 269.695192,-31.6581247 252.022537,-31.783266 L223.981824,-31.9818242" id="china_path" stroke="url(#linearGradient-1)" stroke-width="3" transform="translate(194.500000, 125.518176) scale(-1, 1) rotate(90.000000) translate(-194.500000, -125.518176) "></path>
            <g id="Oval-8-Copy-63">
                <use fill="#E7E7E7" fill-rule="evenodd" xlink:href="#path-2"></use>
                <use stroke="#FFFFFF" mask="url(#mask-3)" stroke-width="10" xlink:href="#path-2"></use>
            </g>
            <g id="Oval-8-Copy-64">
                <use fill="#E7E7E7" fill-rule="evenodd" xlink:href="#path-4"></use>
                <use stroke="#FFFFFF" mask="url(#mask-5)" stroke-width="10" xlink:href="#path-4"></use>
            </g>
            <g id="Oval-8-Copy-65">
                <use fill="#E7E7E7" fill-rule="evenodd" xlink:href="#path-6"></use>
                <use stroke="#FFFFFF" mask="url(#mask-7)" stroke-width="10" xlink:href="#path-6"></use>
            </g>
            <g id="Oval-8-Copy-66">
                <use fill="#E7E7E7" fill-rule="evenodd" xlink:href="#path-8"></use>
                <use stroke="#FFFFFF" mask="url(#mask-9)" stroke-width="10" xlink:href="#path-8"></use>
            </g>
            <g id="Group-5" transform="translate(10.000000, 96.000000)">
                <ellipse id="Oval-8-Copy-58" fill="#E7E7E7" cx="27" cy="27" rx="27" ry="27"></ellipse>
                <g id="Group-2" transform="translate(17.000000, 10.000000)">
                    <g id="Group-3-Copy-10">
                        <use id="Rectangle-5" stroke="#4E6CD9" mask="url(#mask-11)" stroke-width="4" xlink:href="#path-10"></use>
                        <path d="M1.29032258,7 L19,7" id="Line" stroke="#4E6CD9" stroke-width="2" stroke-linecap="square"></path>
                        <path d="M1.29032258,27 L19,27" id="Line-Copy-9" stroke="#4E6CD9" stroke-width="2" stroke-linecap="square"></path>
                        <ellipse id="Oval-2" fill="#4E6CD9" cx="9.5" cy="30.5" rx="1.5" ry="1.5"></ellipse>
                    </g>
                    <rect id="Rectangle-8-Copy-3" fill="#4E6CD9" opacity="0.227262127" x="1" y="8" width="19" height="19"></rect>
                </g>
            </g>
            <g id="Group-Copy-16" transform="translate(114.000000, 19.000000)">
                <polygon id="Triangle" fill="#ACBAEF" points="14 3 26 25 3 25"></polygon>
                <ellipse id="Oval-3-Copy-6" fill="#4E62D8" cx="14" cy="4" rx="4" ry="4"></ellipse>
                <polyline id="Line-Copy-12" stroke="#4E67D8" stroke-width="2" stroke-linecap="round" stroke-linejoin="round" points="0 30.9534884 13.9534884 2 30 32"></polyline>
                <path d="M9,15 L19.8333333,15" id="Line-Copy-30" stroke="#4E62D8" stroke-width="2" stroke-linecap="round"></path>
                <path d="M3.171875,25 L25,25" id="Line-Copy-31" stroke="#4E67D8" stroke-width="2" stroke-linecap="round"></path>
                <polyline id="Path-4-Copy" stroke="#4E67D8" stroke-width="2" stroke-linecap="round" stroke-linejoin="round" points="8 15 14 24 20 15"></polyline>
            </g>
            <g id="Group-Copy-17" transform="translate(116.000000, 199.000000)">
                <polygon id="Triangle" fill="#ACBAEF" points="14 3 26 25 3 25"></polygon>
                <ellipse id="Oval-3-Copy-6" fill="#4E62D8" cx="14" cy="4" rx="4" ry="4"></ellipse>
                <polyline id="Line-Copy-12" stroke="#4E67D8" stroke-width="2" stroke-linecap="round" stroke-linejoin="round" points="0 30.9534884 13.9534884 2 30 32"></polyline>
                <path d="M9,15 L19.8333333,15" id="Line-Copy-30" stroke="#4E62D8" stroke-width="2" stroke-linecap="round"></path>
                <path d="M3.171875,25 L25,25" id="Line-Copy-31" stroke="#4E67D8" stroke-width="2" stroke-linecap="round"></path>
                <polyline id="Path-4-Copy" stroke="#4E67D8" stroke-width="2" stroke-linecap="round" stroke-linejoin="round" points="8 15 14 24 20 15"></polyline>
            </g>
            <g id="Group-4-Copy-24" transform="translate(240.500000, 37.000000) scale(-1, 1) translate(-240.500000, -37.000000) translate(226.000000, 25.000000)">
                <rect id="Rectangle-6" fill="#ACBAEF" x="0" y="0" width="29" height="24" rx="2.4"></rect>
                <use id="Rectangle-6" stroke="#4E62D8" mask="url(#mask-13)" stroke-width="4" xlink:href="#path-12"></use>
                <path d="M3,9 L26,9" id="Line" stroke="#4E67D9" stroke-width="2" stroke-linecap="square"></path>
                <path d="M3,15 L26,15" id="Line-Copy-11" stroke="#4E67D9" stroke-width="2" stroke-linecap="square"></path>
                <path d="M10,3 L10,8" id="Line" stroke="#4E67D9" stroke-width="2" stroke-linecap="square"></path>
                <path d="M9,17 L9,22" id="Line-Copy-18" stroke="#4E67D9" stroke-width="2" stroke-linecap="square"></path>
                <path d="M19,3 L19,8" id="Line-Copy-13" stroke="#4E67D9" stroke-width="2" stroke-linecap="square"></path>
                <path d="M19,17 L19,22" id="Line-Copy-19" stroke="#4E67D9" stroke-width="2" stroke-linecap="square"></path>
                <path d="M15,10 L15,14" id="Line-Copy-15" stroke="#4E67D9" stroke-width="2" stroke-linecap="square"></path>
            </g>
            <g id="Group-4-Copy-26" transform="translate(241.500000, 216.000000) scale(-1, 1) translate(-241.500000, -216.000000) translate(227.000000, 204.000000)">
                <rect id="Rectangle-6" fill="#ACBAEF" x="0" y="0" width="29" height="24" rx="2.4"></rect>
                <use id="Rectangle-6" stroke="#4E62D8" mask="url(#mask-15)" stroke-width="4" xlink:href="#path-14"></use>
                <path d="M3,9 L26,9" id="Line" stroke="#4E67D9" stroke-width="2" stroke-linecap="square"></path>
                <path d="M3,15 L26,15" id="Line-Copy-11" stroke="#4E67D9" stroke-width="2" stroke-linecap="square"></path>
                <path d="M10,3 L10,8" id="Line" stroke="#4E67D9" stroke-width="2" stroke-linecap="square"></path>
                <path d="M9,17 L9,22" id="Line-Copy-18" stroke="#4E67D9" stroke-width="2" stroke-linecap="square"></path>
                <path d="M19,3 L19,8" id="Line-Copy-13" stroke="#4E67D9" stroke-width="2" stroke-linecap="square"></path>
                <path d="M19,17 L19,22" id="Line-Copy-19" stroke="#4E67D9" stroke-width="2" stroke-linecap="square"></path>
                <path d="M15,10 L15,14" id="Line-Copy-15" stroke="#4E67D9" stroke-width="2" stroke-linecap="square"></path>
            </g>
            <g id="Oval-8-Copy-67">
                <use fill="#E7E7E7" fill-rule="evenodd" xlink:href="#path-16"></use>
                <use stroke="#FFFFFF" mask="url(#mask-17)" stroke-width="10" xlink:href="#path-16"></use>
            </g>
            <g id="Group-Copy-18" transform="translate(337.000000, 104.000000)">
                <rect id="Rectangle-3" fill="#ACB8EF" x="0" y="0" width="29" height="33" rx="3"></rect>
                <use id="Rectangle-3" stroke="#4E5CD8" mask="url(#mask-19)" stroke-width="4" xlink:href="#path-18"></use>
                <path d="M2,12 L27.5,12" id="Line" stroke="#4E5CD8" stroke-width="2" stroke-linecap="square"></path>
                <path d="M2,22 L27.5,22" id="Line-Copy-2" stroke="#4E5CD8" stroke-width="2" stroke-linecap="square"></path>
                <path d="M10.5,7 L23.5,7" id="Line" stroke="#4E5CD8" stroke-width="2" stroke-linecap="round"></path>
                <path d="M10.5,17 L23.5,17" id="Line-Copy-3" stroke="#4E5CD8" stroke-width="2" stroke-linecap="round"></path>
                <path d="M10.5,27 L23.5,27" id="Line-Copy-7" stroke="#4E5CD8" stroke-width="2" stroke-linecap="round"></path>
                <path d="M5.5,7 L5.5,7" id="Line-Copy-4" stroke="#4E55D8" stroke-width="2" stroke-linecap="round"></path>
                <path d="M5.5,17 L5.5,17" id="Line-Copy-5" stroke="#4E55D8" stroke-width="2" stroke-linecap="round"></path>
                <path d="M5.5,27 L5.5,27" id="Line-Copy-8" stroke="#4E55D8" stroke-width="2" stroke-linecap="round"></path>
            </g>
        </g>
    </g>
</svg>